{
  "ok": true,
  "result": [
    {
      "_id": "6397153c96458d0ec68f35d3",
      "location": "639713ffb1091d0ec527b044",
      "connectors": [
        {
          "_id": "6397153db1091d0ec527bd29",
          "connectorId": 1,
          "rate": null,
          "active": true,
          "status": "Available",
          "type": "Type 2",
          "format": "Cable",
          "power_type": "AC Single Phase",
          "power": 1,
          "chargestation": "6397153c96458d0ec68f35d3",
          "createdAt": "2022-12-12T11:49:17.199Z",
          "updatedAt": "2022-12-12T14:35:57.986Z"
        },
        {
          "_id": "63973c4e2263500ebcbe76c5",
          "connectorId": 2,
          "rate": null,
          "active": true,
          "status": "Available",
          "type": "Type 2",
          "format": "Cable",
          "power_type": "AC Three Phase",
          "power": 1,
          "chargestation": "6397153c96458d0ec68f35d3",
          "createdAt": "2022-12-12T14:35:58.284Z",
          "updatedAt": "2022-12-12T14:35:58.284Z"
        },
        {
          "_id": "63973c4eb1091d0ec528e83e",
          "connectorId": 3,
          "rate": null,
          "active": true,
          "status": "Available",
          "type": "Type 2",
          "format": "Cable",
          "power_type": "DC",
          "power": 1,
          "chargestation": "6397153c96458d0ec68f35d3",
          "createdAt": "2022-12-12T14:35:58.471Z",
          "updatedAt": "2022-12-12T14:35:58.471Z"
        }
      ],
      "protocol": "ocpp1.6",
      "endpoint": "amuh",
      "static_endpoint": "amuh",
      "online": false,
      "active": true,
      "public": true,
      "is_simulator": false,
      "meta_data": {
        "notes": "patrick charging point"
      },
      "coordinates": [
        4.854706,
        52.394279
      ],
      "createdAt": "2022-12-12T11:49:16.675Z",
      "updatedAt": "2022-12-12T14:35:57.706Z",
      "connection_url": "ws://csms.edrv.io/jhuu",
      "security": {
        "type": "none"
      }
    },
    {
      "_id": "639713ffb1091d0ec527b052",
      "location": "639713ffb1091d0ec527b044",
      "connectors": [
        {
          "_id": "63971400b1091d0ec527b066",
          "connectorId": 1,
          "rate": {
            "_id": "639713ffb1091d0ec527b05f",
            "description": "",
            "active": true,
            "currency": "EUR",
            "price_components": [
              {
                "tax": 19,
                "step_size": 1,
                "type": "ENERGY",
                "price": 10,
                "grace_period": 0
              }
            ],
            "minimum_amount": 0.5,
            "createdAt": "2022-12-12T11:43:59.965Z",
            "updatedAt": "2022-12-12T11:43:59.965Z"
          },
          "active": true,
          "status": "Available",
          "type": "Type 2",
          "format": "Socket",
          "power_type": "AC Single Phase",
          "power": 2,
          "chargestation": "639713ffb1091d0ec527b052",
          "createdAt": "2022-12-12T11:44:00.016Z",
          "updatedAt": "2022-12-12T11:44:00.016Z"
        }
      ],
      "protocol": "ocpp1.6",
      "endpoint": "m2mh",
      "static_endpoint": "m2mh",
      "online": true,
      "active": true,
      "public": true,
      "bootInfo": {
        "chargePointVendor": "eDRV",
        "chargePointModel": "Simulator",
        "firmwareVersion": "1.0.0"
      },
      "lastConnectAt": "2022-12-13T07:18:44.619Z",
      "lastDisconnectAt": "2022-12-13T07:16:42.468Z",
      "lastMessageAt": "2022-12-13T10:46:35.003Z",
      "is_simulator": true,
      "coordinates": [
        4.854706,
        52.394279
      ],
      "createdAt": "2022-12-12T11:43:59.775Z",
      "updatedAt": "2022-12-13T10:46:35.004Z",
      "connection_url": "ws://csms.edrv.io/jhuu",
      "security": {
        "type": "none"
      }
    }
  ],
  "totalDocs": 2,
  "limit": 20,
  "totalPages": 1,
  "page": 1,
  "pagingCounter": 1,
  "hasPrevPage": false,
  "hasNextPage": false,
  "prevPage": null,
  "nextPage": null,
  "message": "Result"
}